SQL> @PLh20
Enter the rate decrement: 55
Enter the allowed min. rate: 200
+++++ boat: 106: old rate = 300                                                 
----- boat: 106: new rate = 245                                                 
+++++ boat: 107: old rate = 350                                                 
+++++ update rejected: -2290...ORA-02290: check constraint (SYSTEM.BIC4)        
violated                                                                        
+++++ boat: 108: old rate = 100                                                 
----- Update rejected: The new rating would have been: 45                       

PL/SQL procedure successfully completed.

SQL> SPOOL OFF
